{
    "rules": {
      "tasks": {
        "$uid": {
          ".read": "auth !== null && auth.uid === $uid",
          ".write": "auth !== null && auth.uid === $uid",
          ".indexOn": ["completed"]
        }
      }
    }
  }
  