<svg style="width:24px;height:24px" viewBox="0 0 24 24">
    <path fill="#ffffff" d="M12,22A2,2 0 0,0 14,20H10A2,2 0 0,0 12,22M18,16V11C18,7.93 16.36,5.36 13.5,4.68V4A1.5,1.5 0 0,0 12,2.5A1.5,1.5 0 0,0 10.5,4V4.68C7.63,5.36 6,7.92 6,11V16L4,18V19H20V18L18,16Z" />
</svg>
