{
  "short_name": "SmarTokenizer",
  "name": "SmarTokenizer",
  "icons": [
    {
      "src":"assets/img/favicons/favicon-194x194.png",
      "sizes": "194x194 512x512",
      "type": "image/png"
    },
    {
      "src":"assets/images/favicons/apple-touch-icon-144x144.png",
      "sizes": "144x144",
      "type": "image/png"
    }
  ],
  "start_url": "/?utm_source=homescreen",
  "background_color": "#006064",
  "theme_color": "#006064",
  "display": "standalone"
}
